Data Summarization
…
Table

table(x) will return a frequency table of unique elements of x

head(table(yts$LocationDesc))

    Alabama     Arizona    Arkansas  California    Colorado Connecticut 
        378         240         210          96          48         384 

dplyr: count

yts %>% count(LocationDesc)

# A tibble: 50 x 2
   LocationDesc             n
   <chr>                <int>
 1 Alabama                378
 2 Arizona                240
 3 Arkansas               210
 4 California              96
 5 Colorado                48
 6 Connecticut            384
 7 Delaware               312
 8 District of Columbia    48
 9 Florida                 96
10 Georgia                282
#  with 40 more rows

dplyr: count

yts %>% count(LocationDesc, Age)

# A tibble: 50 x 3
   LocationDesc         Age          n
   <chr>                <chr>    <int>
 1 Alabama              All Ages   378
 2 Arizona              All Ages   240
 3 Arkansas             All Ages   210
 4 California           All Ages    96
 5 Colorado             All Ages    48
 6 Connecticut          All Ages   384
 7 Delaware             All Ages   312
 8 District of Columbia All Ages    48
 9 Florida              All Ages    96
10 Georgia              All Ages   282
#  with 40 more rows
…
Ungroup the data

You usually want to perform operations on groups and may want to redefine the groups. The ungroup function will allow you to clear the groups from the data:

sub_yts = ungroup(sub_yts)
sub_yts

# A tibble: 222 x 4
    YEAR LocationDesc   Data_Value Data_Value_Unit
   <dbl> <chr>               <dbl> <chr>          
 1  2015 Arizona               3.2 %              
 2  2015 Connecticut           0.8 %              
 3  2015 Hawaii                3   %              
 4  2015 Illinois              2   %              
 5  2015 Louisiana             5.2 %              
 6  2015 Mississippi           4.7 %              
 7  2015 Missouri              2.4 %              
 8  2015 New Jersey            1.2 %              
 9  2015 North Carolina        2.3 %              
10  2015 North Dakota          3.6 %              
#  with 212 more rows

group_by with mutate - just add data

We can also use mutate to calculate the mean value for each year and add it as a column:

sub_yts %>% 
  group_by(YEAR) %>% 
  mutate(year_avg = mean(Data_Value, na.rm = TRUE)) %>% 
  arrange(LocationDesc, YEAR) # look at year 2000 value

# A tibble: 222 x 5
# Groups:   YEAR [17]
    YEAR LocationDesc Data_Value Data_Value_Unit year_avg
   <dbl> <chr>             <dbl> <chr>              <dbl>
 1  2000 Alabama            19.1 %                  12.5 
 2  2002 Alabama            15.6 %                   9.60
 3  2004 Alabama            13.1 %                   8.2 
 4  2006 Alabama            13   %                   7.37
 5  2008 Alabama             8.7 %                   5.95
 6  2010 Alabama             7   %                   5.6 
 7  2012 Alabama             7.5 %                   4.72
 8  2014 Alabama             6.4 %                   2.93
 9  2000 Arizona            11.4 %                  12.5 
10  2003 Arizona             8.7 %                   7.49
#  with 212 more rows
…
