Data Summarization
…
Ungroup the data

You usually want to perform operations on groups and may want to redefine the groups. The ungroup function will allow you to clear the groups from the data:

sub_yts = ungroup(sub_yts)
sub_yts

# A tibble: 222 x 3
    YEAR   LocationDesc Data_Value
   <int>          <chr>      <dbl>
 1  2015        Arizona        3.2
 2  2015    Connecticut        0.8
 3  2015         Hawaii        3.0
 4  2015       Illinois        2.0
 5  2015      Louisiana        5.2
 6  2015    Mississippi        4.7
 7  2015       Missouri        2.4
 8  2015     New Jersey        1.2
 9  2015 North Carolina        2.3
10  2015   North Dakota        3.6
# ... with 212 more rows
…
group_by with mutate - just add data

We can also use mutate to calculate the mean value for each year and add it as a column:

sub_yts %>% 
  group_by(YEAR) %>% 
  mutate(year_avg = mean(Data_Value, na.rm = TRUE)) %>% 
  arrange(LocationDesc, YEAR)

# A tibble: 222 x 4
# Groups:   YEAR [17]
    YEAR LocationDesc Data_Value  year_avg
   <int>        <chr>      <dbl>     <dbl>
 1  2000      Alabama       19.1 12.533333
 2  2002      Alabama       15.6  9.595652
 3  2004      Alabama       13.1  8.200000
 4  2006      Alabama       13.0  7.372727
 5  2008      Alabama        8.7  5.950000
 6  2010      Alabama        7.0  5.600000
 7  2012      Alabama        7.5  4.720000
 8  2014      Alabama        6.4  2.928571
 9  2000      Arizona       11.4 12.533333
10  2003      Arizona        8.7  7.491667
# ... with 212 more rows
…
