Data Visualization
…
# A tibble: 2 x 5
  X1          `1760` `1761` `1762` `1763`
  <chr>        <dbl>  <dbl>  <dbl>  <dbl>
1 Afghanistan     NA     NA     NA     NA
2 Albania         NA     NA     NA     NA

Read in Data: jhur

jhur::read_mortality()

# A tibble: 197 x 255
   X1    `1760` `1761` `1762` `1763` `1764` `1765` `1766` `1767` `1768` `1769`
   <chr>  <dbl>  <dbl>  <dbl>  <dbl>  <dbl>  <dbl>  <dbl>  <dbl>  <dbl>  <dbl>
 1 Afgh~     NA     NA     NA     NA     NA     NA     NA     NA     NA     NA
 2 Alba~     NA     NA     NA     NA     NA     NA     NA     NA     NA     NA
 3 Alge~     NA     NA     NA     NA     NA     NA     NA     NA     NA     NA
 4 Ango~     NA     NA     NA     NA     NA     NA     NA     NA     NA     NA
 5 Arge~     NA     NA     NA     NA     NA     NA     NA     NA     NA     NA
 6 Arme~     NA     NA     NA     NA     NA     NA     NA     NA     NA     NA
 7 Aruba     NA     NA     NA     NA     NA     NA     NA     NA     NA     NA
 8 Aust~     NA     NA     NA     NA     NA     NA     NA     NA     NA     NA
 9 Aust~     NA     NA     NA     NA     NA     NA     NA     NA     NA     NA
10 Azer~     NA     NA     NA     NA     NA     NA     NA     NA     NA     NA
# ... with 187 more rows, and 244 more variables: `1770` <dbl>, `1771` <dbl>,
#   `1772` <dbl>, `1773` <dbl>, `1774` <dbl>, `1775` <dbl>, `1776` <dbl>,
#   `1777` <dbl>, `1778` <dbl>, `1779` <dbl>, `1780` <dbl>, `1781` <dbl>,
#   `1782` <dbl>, `1783` <dbl>, `1784` <dbl>, `1785` <dbl>, `1786` <dbl>,
#   `1787` <dbl>, `1788` <dbl>, `1789` <dbl>, `1790` <dbl>, `1791` <dbl>,
#   `1792` <dbl>, `1793` <dbl>, `1794` <dbl>, `1795` <dbl>, `1796` <dbl>,
#   `1797` <dbl>, `1798` <dbl>, `1799` <dbl>, `1800` <dbl>, `1801` <dbl>,
#   `1802` <dbl>, `1803` <dbl>, `1804` <dbl>, `1805` <dbl>, `1806` <dbl>,
#   `1807` <dbl>, `1808` <dbl>, `1809` <dbl>, `1810` <dbl>, `1811` <dbl>,
…
