Data Summarization Lab Key
…
## # A tibble: 1 x 1
##   project    
##   <chr>      
## 1 MAINTENANCE

arrange(summarize(group_by(bike, project, type), 
          n = n(), mean = mean(length)),
        desc(mean))

## # A tibble: 32 x 4
## # Groups:   project [13]
##    project                   type             n  mean
##    <chr>                     <chr>        <int> <dbl>
##  1 MAINTENANCE               BIKE LANE        4 1942.
##  2 TRAFFIC                   SIDEPATH         1 1848.
##  3 ENGINEERING CONSTRUCTION  BIKE LANE        8  537.
##  4 <NA>                      SIDEPATH         2  512.
##  5 ENGINEERING CONSTRUCTION  SIDEPATH         3  481.
##  6 ENGINEERING CONSTRUCTION  SHARROW          1  403.
##  7 PARK HEIGHTS BIKE NETWORK SIGNED ROUTE    27  398.
##  8 TRAFFIC                   BIKE LANE       50  391.
##  9 PLANNING TRAFFIC          BIKE LANE        6  363.
## 10 <NA>                      BIKE LANE       12  357.
## #  with 22 more rows
…
