Data Visualization Lab Key
…
Part 2

Use the provided code to compute a data frame bike_agg_2 with aggregate summary of bike lanes: number of lanes (lane_count)  separately for each year (dateInstalled) and for each lane type.

bike_agg_2 <- 
  bike %>%
  filter(dateInstalled != 0) %>%
  group_by(dateInstalled, type) %>%
  summarise(lane_count = n())

## `summarise()` has grouped output by 'dateInstalled'. You can override using the `.groups` argument.

bike_agg_2

## # A tibble: 22 x 3
## # Groups:   dateInstalled [8]
##    dateInstalled type            lane_count
##            <dbl> <chr>                <int>
##  1          2006 BIKE LANE                2
##  2          2007 BIKE LANE              127
##  3          2007 SHARROW                 95
##  4          2007 SIGNED ROUTE           146
##  5          2008 BIKE LANE               55
##  6          2008 SHARROW                148
##  7          2008 SIDEPATH                 3
##  8          2009 BIKE LANE               46
##  9          2009 SHARED BUS BIKE         30
## 10          2009 SHARROW                 10
## #  with 12 more rows
…
