Data Cleaning Lab Key
…
tidy(tab)

## # A tibble: 21 x 3
##    type            numLanes     n
##    <chr>           <chr>    <int>
##  1 BIKE BOULEVARD  0            0
##  2 BIKE LANE       0           20
##  3 CONTRAFLOW      0            0
##  4 SHARED BUS BIKE 0            0
##  5 SHARROW         0            0
##  6 SIDEPATH        0            0
##  7 SIGNED ROUTE    0            0
##  8 BIKE BOULEVARD  1            1
##  9 BIKE LANE       1          411
## 10 CONTRAFLOW      1            7
## # ... with 11 more rows
…
ward_table = tax %>% 
  group_by(Ward) %>% 
  tally()

ward_table = tax %>% 
  group_by(Ward) %>% 
  summarize(number_of_obs = n(),
            mean(StateTax, na.rm = TRUE))

what is the mean state tax per ward? use group_by and summarize

tax %>%   group_by(Ward) %>% 
  summarize(mean_state = mean(StateTax, na.rm = TRUE))

## # A tibble: 29 x 2
##    Ward  mean_state
##    <chr>      <dbl>
##  1 01         301. 
##  2 02         369. 
##  3 03         879. 
##  4 04        2442. 
##  5 05         356. 
##  6 06         178. 
##  7 07          95.9
##  8 08          51.7
##  9 09          86.5
## 10 10          74.1
## # ... with 19 more rows

what is the maximum amount still due in each ward? different summarization (max)

tax$AmountDue = tax$AmountDue %>% 
  str_replace(fixed("$"), "") %>%
  as.numeric

tax = tax %>% mutate(
  AmountDue = as.numeric(str_replace(AmountDue, fixed("$"), ""))
)

tax %>% group_by(Ward) %>% 
  summarize(maxDue = max(AmountDue, na.rm = TRUE))

## # A tibble: 29 x 2
##    Ward    maxDue
##    <chr>    <dbl>
##  1 01     627349.
##  2 02    1452842.
##  3 03    1362318.
##  4 04    3688217.
##  5 05     951087.
##  6 06     414725.
##  7 07    1239508.
##  8 08     396504.
##  9 09     155496.
## 10 10     169659.
## # ... with 19 more rows

What is the 75th percentile of city and state tax paid by Ward? (quantile)

tax %>% group_by(Ward) %>% 
  summarize(Percentile = quantile(StateTax, prob = 0.75,na.rm = TRUE))

## # A tibble: 29 x 2
##    Ward  Percentile
##    <chr>      <dbl>
##  1 01         320. 
##  2 02         329. 
##  3 03         311. 
##  4 04         582. 
##  5 05         128. 
##  6 06         198. 
##  7 07          43.3
##  8 08          73.7
##  9 09         132. 
## 10 10          82.9
## # ... with 19 more rows
…
